=== DuckDB Q9 Results ===
Timestamp: 20260213_113325
Scale Factor: SF-1
Query: Q9

┌────────────────┬────────┬───────────────┐
│     nation     │ o_year │  sum_profit   │
│    varchar     │ int64  │ decimal(38,4) │
├────────────────┼────────┼───────────────┤
│ ALGERIA        │   1998 │ 27136900.1803 │
│ ALGERIA        │   1997 │ 48611833.4962 │
│ ALGERIA        │   1996 │ 48285482.6782 │
│ ALGERIA        │   1995 │ 44402273.5999 │
│ ALGERIA        │   1994 │ 48694008.0668 │
│ ALGERIA        │   1993 │ 46044207.7838 │
│ ALGERIA        │   1992 │ 45636849.4881 │
│ ARGENTINA      │   1998 │ 28341663.7848 │
│ ARGENTINA      │   1997 │ 47143964.1176 │
│ ARGENTINA      │   1996 │ 45255278.6021 │
│ ARGENTINA      │   1995 │ 45631769.2054 │
│ ARGENTINA      │   1994 │ 48268856.3547 │
│ ARGENTINA      │   1993 │ 48605593.6162 │
│ ARGENTINA      │   1992 │ 46654240.7487 │
│ BRAZIL         │   1998 │ 26527736.3960 │
│ BRAZIL         │   1997 │ 45640660.7677 │
│ BRAZIL         │   1996 │ 45090647.1630 │
│ BRAZIL         │   1995 │ 44015888.5132 │
│ BRAZIL         │   1994 │ 44854218.8932 │
│ BRAZIL         │   1993 │ 45766603.7379 │
│   ·            │     ·  │       ·       │
│   ·            │     ·  │       ·       │
│   ·            │     ·  │       ·       │
│ UNITED KINGDOM │   1997 │ 44518130.1851 │
│ UNITED KINGDOM │   1996 │ 45539729.6166 │
│ UNITED KINGDOM │   1995 │ 46845879.3390 │
│ UNITED KINGDOM │   1994 │ 43081609.5737 │
│ UNITED KINGDOM │   1993 │ 44770146.7555 │
│ UNITED KINGDOM │   1992 │ 44123402.5484 │
│ UNITED STATES  │   1998 │ 27826593.6825 │
│ UNITED STATES  │   1997 │ 46638572.3648 │
│ UNITED STATES  │   1996 │ 46688280.5474 │
│ UNITED STATES  │   1995 │ 48951591.6156 │
│ UNITED STATES  │   1994 │ 45099092.0598 │
│ UNITED STATES  │   1993 │ 46181600.5278 │
│ UNITED STATES  │   1992 │ 46168214.0901 │
│ VIETNAM        │   1998 │ 27281931.0011 │
│ VIETNAM        │   1997 │ 48735914.1796 │
│ VIETNAM        │   1996 │ 47824595.9040 │
│ VIETNAM        │   1995 │ 48235135.8016 │
│ VIETNAM        │   1994 │ 47729256.3324 │
│ VIETNAM        │   1993 │ 45352676.8672 │
│ VIETNAM        │   1992 │ 47846355.6485 │
├────────────────┴────────┴───────────────┤
│ 175 rows (40 shown)           3 columns │
└─────────────────────────────────────────┘
…
