=== DuckDB Q9 Results ===
Timestamp: 20260214_124755
Scale Factor: SF-100
Query: Q9

┌────────────────┬────────┬─────────────────┐
│     nation     │ o_year │   sum_profit    │
│    varchar     │ int64  │  decimal(38,4)  │
├────────────────┼────────┼─────────────────┤
│ ALGERIA        │   1998 │ 2746388473.8032 │
│ ALGERIA        │   1997 │ 4705096214.1934 │
│ ALGERIA        │   1996 │ 4691101028.3880 │
│ ALGERIA        │   1995 │ 4692240612.2209 │
│ ALGERIA        │   1994 │ 4677512644.2049 │
│ ALGERIA        │   1993 │ 4684367583.8281 │
│ ALGERIA        │   1992 │ 4704266160.0314 │
│ ARGENTINA      │   1998 │ 2718513010.8517 │
│ ARGENTINA      │   1997 │ 4646318596.6846 │
│ ARGENTINA      │   1996 │ 4656102598.0412 │
│ ARGENTINA      │   1995 │ 4652753173.2283 │
│ ARGENTINA      │   1994 │ 4645991799.5327 │
│ ARGENTINA      │   1993 │ 4643401137.5627 │
│ ARGENTINA      │   1992 │ 4617848896.7718 │
│ BRAZIL         │   1998 │ 2731140677.1163 │
│ BRAZIL         │   1997 │ 4675931143.5076 │
│ BRAZIL         │   1996 │ 4665397071.9817 │
│ BRAZIL         │   1995 │ 4661653435.2637 │
│ BRAZIL         │   1994 │ 4664829056.3807 │
│ BRAZIL         │   1993 │ 4675246060.5211 │
│   ·            │     ·  │        ·        │
│   ·            │     ·  │        ·        │
│   ·            │     ·  │        ·        │
│ UNITED KINGDOM │   1997 │ 4687915843.3827 │
│ UNITED KINGDOM │   1996 │ 4725596237.9521 │
│ UNITED KINGDOM │   1995 │ 4692146767.0496 │
│ UNITED KINGDOM │   1994 │ 4717398081.8118 │
│ UNITED KINGDOM │   1993 │ 4694183885.2941 │
│ UNITED KINGDOM │   1992 │ 4722609721.7765 │
│ UNITED STATES  │   1998 │ 2744344335.0383 │
│ UNITED STATES  │   1997 │ 4652698592.5866 │
│ UNITED STATES  │   1996 │ 4670553955.7057 │
│ UNITED STATES  │   1995 │ 4659218769.7598 │
│ UNITED STATES  │   1994 │ 4671044724.0807 │
│ UNITED STATES  │   1993 │ 4680519402.4766 │
│ UNITED STATES  │   1992 │ 4707714157.3208 │
│ VIETNAM        │   1998 │ 2741387136.2468 │
│ VIETNAM        │   1997 │ 4661928954.8541 │
│ VIETNAM        │   1996 │ 4690535970.8003 │
│ VIETNAM        │   1995 │ 4692078285.1287 │
│ VIETNAM        │   1994 │ 4705541885.2493 │
│ VIETNAM        │   1993 │ 4708733491.5609 │
│ VIETNAM        │   1992 │ 4681498238.7580 │
├────────────────┴────────┴─────────────────┤
│ 175 rows (40 shown)             3 columns │
└───────────────────────────────────────────┘
…
