=== DuckDB Q9 Results ===
Timestamp: 20260223_111634
Scale Factor: SF-10
Query: Q9

┌────────────────┬────────┬────────────────┐
│     nation     │ o_year │   sum_profit   │
│    varchar     │ int64  │ decimal(38,4)  │
├────────────────┼────────┼────────────────┤
│ ALGERIA        │   1998 │ 271504046.5508 │
│ ALGERIA        │   1997 │ 457035986.9555 │
│ ALGERIA        │   1996 │ 457125199.0414 │
│ ALGERIA        │   1995 │ 460972497.0491 │
│ ALGERIA        │   1994 │ 456444975.7127 │
│ ALGERIA        │   1993 │ 456449926.4138 │
│ ALGERIA        │   1992 │ 459548354.7680 │
│ ARGENTINA      │   1998 │ 277792984.9141 │
│ ARGENTINA      │   1997 │ 467555914.5594 │
│ ARGENTINA      │   1996 │ 473886192.7453 │
│ ARGENTINA      │   1995 │ 468457259.9584 │
│ ARGENTINA      │   1994 │ 467071963.6041 │
│ ARGENTINA      │   1993 │ 469523991.9188 │
│ ARGENTINA      │   1992 │ 471169675.3110 │
│ BRAZIL         │   1998 │ 278153002.0221 │
│ BRAZIL         │   1997 │ 460597231.9522 │
│ BRAZIL         │   1996 │ 465471604.2949 │
│ BRAZIL         │   1995 │ 466391978.0645 │
│ BRAZIL         │   1994 │ 466833690.9775 │
│ BRAZIL         │   1993 │ 458908773.7974 │
│   ·            │     ·  │        ·       │
│   ·            │     ·  │        ·       │
│   ·            │     ·  │        ·       │
│ UNITED KINGDOM │   1997 │ 463575539.6379 │
│ UNITED KINGDOM │   1996 │ 467451217.6874 │
│ UNITED KINGDOM │   1995 │ 465308981.2708 │
│ UNITED KINGDOM │   1994 │ 466317400.9398 │
│ UNITED KINGDOM │   1993 │ 467140902.3099 │
│ UNITED KINGDOM │   1992 │ 464629409.6613 │
│ UNITED STATES  │   1998 │ 271746698.7703 │
│ UNITED STATES  │   1997 │ 466200287.2350 │
│ UNITED STATES  │   1996 │ 466726897.7640 │
│ UNITED STATES  │   1995 │ 470797066.3205 │
│ UNITED STATES  │   1994 │ 476447816.2560 │
│ UNITED STATES  │   1993 │ 460120427.2978 │
│ UNITED STATES  │   1992 │ 468157792.3023 │
│ VIETNAM        │   1998 │ 272979518.3274 │
│ VIETNAM        │   1997 │ 473777590.7684 │
│ VIETNAM        │   1996 │ 466048777.1537 │
│ VIETNAM        │   1995 │ 468658193.1331 │
│ VIETNAM        │   1994 │ 478019622.5095 │
│ VIETNAM        │   1993 │ 469271925.6739 │
│ VIETNAM        │   1992 │ 463962943.8714 │
├────────────────┴────────┴────────────────┤
│ 175 rows (40 shown)            3 columns │
└──────────────────────────────────────────┘
…
